{
	"channel" : 9,
	
	"units" : [
		{
			"volume" : { "cc" : 77 },
			"pan" : { "cc" : 29 },
			
			"mute" : { "note" : 73 },
			"active" : { "note" : 41 },
			
			"samplePitch" : { "cc" : 49 }
                      
		},
		{
			"volume" : { "cc" : 78 },
			"pan" : { "cc" : 30 },
			
			"mute" : { "note" : 74 },
			"active" : { "note" : 42 },
			
			"samplePitch" : { "cc" : 50 }
		},
		{
			"volume" : { "cc" : 79 },
			"pan" : { "cc" : 31 },
			
			"mute" : { "note" : 75 },
			"active" : { "note" : 43 },
			
			"samplePitch" : { "cc" : 51 }
		},
		{
			"volume" : { "cc" : 80 },
			"pan" : { "cc" : 32 },
			
			"mute" : { "note" : 76 },
			"active" : { "note" : 44 },
			
			"samplePitch" : { "cc" : 52 }
		},
		{
			"volume" : { "cc" : 81 },
			"pan" : { "cc" : 33 },
			
			"mute" : { "note" : 89 },
			"active" : { "note" : 57 },
			
			"samplePitch" : { "cc" : 53 }
		},
		{
			"volume" : { "cc" : 82 },
			"pan" : { "cc" : 34 },
			
			"mute" : { "note" : 90 },
			"active" : { "note" : 58 },
			
			"samplePitch" : { "cc" : 54 }
		},
		{
			"volume" : { "cc" : 83 },
			"pan" : { "cc" : 35 },
			
			"mute" : { "note" : 91 },
			"active" : { "note" : 59 },
			
			"samplePitch" : { "cc" : 55 }
		},
		{
			"volume" : { "cc" : 84 },
			"pan" : { "cc" : 36 },
			
			"mute" : { "note" : 92 },
			"active" : { "note" : 60 },
			
			"samplePitch" : { "cc" : 56 }
		}
			],
	
	"global" : {
                "masterVolume" : { "cc" : 20 },
		"tempo" : { "cc" : 19 },
		
		"cam_x" : { "cc" : 13 },
		"cam_y" : { "cc" : 14 },
		"cam_zoom_in" : { "note" : 105 },
		"cam_zoom_out" : { "note" : 106 }
		
	}
}
}

